module backend-gateway-service

go 1.18

require (
	github.com/google/wire v0.6.0
	github.com/grpc-ecosystem/grpc-gateway/v2 v2.19.1
	go.mongodb.org/mongo-driver v1.14.0
	google.golang.org/genproto/googleapis/api v0.0.0-20240221002015-b0ce06bbee7c
	google.golang.org/grpc v1.62.0
	google.golang.org/protobuf v1.32.0
)

require (
	github.com/mattn/go-colorable v0.1.13 // indirect
	github.com/mattn/go-isatty v0.0.19 // indirect
	launchpad.net/gocheck v0.0.0-20140225173054-000000000087 // indirect
)

require (
	github.com/golang/protobuf v1.5.3 // indirect
	github.com/golang/snappy v0.0.1 // indirect
	github.com/joho/godotenv v1.5.1
	github.com/klauspost/compress v1.13.6 // indirect
	github.com/montanaflynn/stats v0.0.0-20171201202039-1bf9dbcd8cbe // indirect
	github.com/rs/zerolog v1.32.0
	github.com/xdg-go/pbkdf2 v1.0.0 // indirect
	github.com/xdg-go/scram v1.1.2 // indirect
	github.com/xdg-go/stringprep v1.0.4 // indirect
	github.com/youmark/pkcs8 v0.0.0-20181117223130-1be2e3e5546d // indirect
	golang.org/x/crypto v0.18.0 // indirect
	golang.org/x/net v0.20.0 // indirect
	golang.org/x/sync v0.6.0 // indirect
	golang.org/x/sys v0.16.0 // indirect
	golang.org/x/text v0.14.0 // indirect
	google.golang.org/genproto v0.0.0-20240221002015-b0ce06bbee7c // indirect
	google.golang.org/genproto/googleapis/rpc v0.0.0-20240221002015-b0ce06bbee7c // indirect
	gopkg.in/natefinch/lumberjack.v2 v2.2.1
	labix.org/v2/mgo v0.0.0-20140701140051-000000000287
)
